<?xml version="1.0" encoding="UTF-8" standalone="no"?>
<svg
   width="519.76996"
   height="999.25806"
   viewBox="0 0 519.76996 999.25806"
   fill="none"
   class="absolute top-0 right-10 z-0 text-slate-300"
   version="1.1"
   id="svg78"
   sodipodi:docname="lines_vertical_1.svg"
   inkscape:version="1.1.2 (0a00cf5339, 2022-02-04)"
   xmlns:inkscape="http://www.inkscape.org/namespaces/inkscape"
   xmlns:sodipodi="http://sodipodi.sourceforge.net/DTD/sodipodi-0.dtd"
   xmlns="http://www.w3.org/2000/svg"
   xmlns:svg="http://www.w3.org/2000/svg">
  <defs
     id="defs82" />
  <sodipodi:namedview
     id="namedview80"
     pagecolor="#505050"
     bordercolor="#eeeeee"
     borderopacity="1"
     inkscape:pageshadow="0"
     inkscape:pageopacity="0"
     inkscape:pagecheckerboard="0"
     showgrid="false"
     inkscape:zoom="0.62614875"
     inkscape:cx="367.32486"
     inkscape:cy="582.92858"
     inkscape:window-width="1920"
     inkscape:window-height="1034"
     inkscape:window-x="0"
     inkscape:window-y="22"
     inkscape:window-maximized="1"
     inkscape:current-layer="svg78"
     fit-margin-top="0"
     fit-margin-left="0"
     fit-margin-right="0"
     fit-margin-bottom="0" />
  <path
     d="M 414.80551,0.42279831 C 432.97543,72.05837 485.4395,118.63759 509.76623,184.48895 c 19.63589,52.68185 6.7403,113.07449 -16.41409,172.18023 -15.24025,38.86888 -30.77414,74.52582 -37.22232,107.61274 -6.44817,32.12478 -8.49993,63.92555 -4.98219,97.97614 7.03396,64.56749 -4.10352,127.2069 -17.29201,189.52686 -17.292,82.23282 -48.36055,162.54287 -19.93031,247.35253"
     stroke="currentColor"
     stroke-width="0.5"
     stroke-miterlimit="10"
     id="path2"
     style="opacity:1;fill:none;stroke:#ffffff;stroke-width:1;stroke-miterlimit:10;stroke-dasharray:none;stroke-opacity:1" />
  <path
     d="M 391.94324,0.42279831 C 410.11544,71.736493 465.21554,117.35145 491.30038,182.56087 c 21.10187,52.68337 7.91415,113.07449 -15.24025,172.50196 -15.24024,38.86964 -30.77414,74.8483 -37.80809,107.61273 -6.74031,32.12327 -9.08648,64.24729 -6.15453,98.29863 5.86012,64.56749 -5.27585,127.52863 -18.46585,190.16804 -17.292,82.55682 -48.94482,162.86687 -22.85998,247.99522"
     stroke="currentColor"
     stroke-width="0.5"
     stroke-miterlimit="10"
     id="path6"
     style="opacity:1;fill:none;stroke:#ffffff;stroke-width:1;stroke-miterlimit:10;stroke-dasharray:none;stroke-opacity:1" />
  <path
     d="M 368.78885,0.42453517 C 386.96105,71.736493 444.4058,115.74585 472.2495,180.63507 c 22.27421,52.36088 9.37861,113.07297 -14.06791,172.50195 -15.24025,38.86889 -31.06779,75.16775 -38.10175,107.93295 -7.03472,32.12402 -9.67226,64.56749 -7.32685,98.29786 4.69006,64.5675 -6.44818,127.52939 -19.63742,190.49053 -17.29276,82.55834 -49.82501,163.50577 -25.49829,248.63412"
     stroke="currentColor"
     stroke-width="0.5"
     stroke-miterlimit="10"
     id="path10"
     style="opacity:1;fill:none;stroke:#ffffff;stroke-width:1;stroke-miterlimit:10;stroke-dasharray:none;stroke-opacity:1" />
  <path
     d="M 345.92886,0.10287005 C 364.39319,71.416588 424.18336,113.81929 453.49228,178.38678 c 23.74018,52.36012 10.5517,113.3947 -12.6027,172.82217 -15.24024,38.86964 -31.35992,75.1685 -38.39464,107.93446 -7.03396,32.44499 -10.25804,64.56825 -8.49993,98.61883 3.51773,64.8877 -7.61975,127.84884 -20.80823,191.13246 -17.292,82.87703 -50.41231,164.15074 -28.13583,249.59778"
     stroke="currentColor"
     stroke-width="0.5"
     stroke-miterlimit="10"
     id="path14"
     style="opacity:1;fill:none;stroke:#ffffff;stroke-width:1;stroke-miterlimit:10;stroke-dasharray:none;stroke-opacity:1" />
  <path
     d="M 323.06812,0.10287005 C 341.53245,71.094634 403.9594,112.21142 435.02795,176.45946 c 25.2054,52.03916 12.01616,113.3947 -11.43037,173.14389 -15.24025,39.19061 -31.36068,75.48948 -38.98043,108.25467 -7.32836,32.44499 -10.84459,64.88922 -9.67226,98.9398 2.3439,64.8877 -8.49993,128.17132 -21.98207,191.45495 -17.58565,83.20027 -51.29023,164.46639 -31.06779,250.23971"
     stroke="currentColor"
     stroke-width="0.5"
     stroke-miterlimit="10"
     id="path18"
     style="opacity:1;fill:none;stroke:#ffffff;stroke-width:1;stroke-miterlimit:10;stroke-dasharray:none;stroke-opacity:1" />
  <path
     d="M 299.91448,0.10287005 C 318.37881,71.094634 383.44483,110.60583 415.97708,174.53138 c 26.37848,52.03916 13.18848,113.71643 -10.25805,173.46562 -15.24024,39.19136 -31.65357,75.81044 -39.27407,108.25467 -7.61975,32.44499 -11.43038,65.21018 -10.84383,99.26077 1.17156,64.88921 -9.67227,128.49304 -23.1544,192.09612 -17.58414,83.52579 -51.87677,165.1106 -33.70458,250.88392"
     stroke="currentColor"
     stroke-width="0.5"
     stroke-miterlimit="10"
     id="path22"
     style="opacity:1;fill:none;stroke:#ffffff;stroke-width:1;stroke-miterlimit:10;stroke-dasharray:none;stroke-opacity:1" />
  <path
     d="M 277.05222,0.10287005 C 295.8102,71.094634 363.22087,109.3212 397.21909,172.60482 c 27.84446,51.71895 14.36233,113.71643 -9.08572,173.78658 -15.24024,39.19061 -31.94646,75.81121 -39.5662,108.5764 -7.91416,32.76672 -12.31057,65.53115 -12.01692,99.26001 0.29289,64.88997 -10.84535,128.81553 -24.32596,192.4186 -17.58566,83.84297 -52.75621,165.75406 -36.34364,251.52738"
     stroke="currentColor"
     stroke-width="0.5"
     stroke-miterlimit="10"
     id="path26"
     style="opacity:1;fill:none;stroke:#ffffff;stroke-width:1;stroke-miterlimit:10;stroke-dasharray:none;stroke-opacity:1" />
  <path
     d="M 253.9001,0.10287005 C 272.65656,70.774502 342.70478,107.71561 378.46111,170.99923 c 29.30968,51.71667 15.82755,113.7149 -7.61974,174.10603 -15.24024,39.19061 -31.94647,76.13217 -39.86062,108.5764 -7.91263,32.76671 -12.60194,65.53191 -13.18848,99.58249 -1.17157,65.20942 -12.01616,129.13498 -25.49829,193.06054 -17.58566,84.16469 -53.34199,166.39447 -38.98194,252.16779"
     stroke="currentColor"
     stroke-width="0.5"
     stroke-miterlimit="10"
     id="path30"
     style="opacity:1;fill:none;stroke:#ffffff;stroke-width:1;stroke-miterlimit:10;stroke-dasharray:none;stroke-opacity:1" />
  <path
     d="M 231.03784,0.10287005 C 249.79582,70.774426 322.18868,106.10925 359.70465,169.07115 c 30.48048,51.39722 16.99835,114.03663 -6.44818,174.42776 -15.24176,39.19136 -32.24011,76.45389 -40.4464,108.89888 -8.20552,33.08692 -13.18924,65.85136 -14.36157,99.90194 -2.34389,65.2117 -13.18848,129.13574 -26.67061,193.38302 -17.58566,84.48035 -53.92854,166.71772 -41.91162,253.12842"
     stroke="currentColor"
     stroke-width="0.5"
     stroke-miterlimit="10"
     id="path34"
     style="opacity:1;fill:none;stroke:#ffffff;stroke-width:1;stroke-miterlimit:10;stroke-dasharray:none;stroke-opacity:1" />
  <path
     d="M 207.88344,0.10287005 C 226.64142,70.774502 301.67259,104.50366 340.65301,167.14307 c 31.94647,51.39722 18.46434,114.03815 -5.27584,174.75024 -15.24025,39.19061 -32.53301,76.4539 -40.73854,108.89813 -8.49993,33.08692 -13.77502,66.17384 -15.53465,99.9027 -3.51622,65.20942 -14.36005,129.4567 -27.84218,194.0242 -17.58566,84.80738 -54.80797,167.36344 -44.54993,253.77414"
     stroke="currentColor"
     stroke-width="0.5"
     stroke-miterlimit="10"
     id="path38"
     style="opacity:1;fill:none;stroke:#ffffff;stroke-width:1;stroke-miterlimit:10;stroke-dasharray:none;stroke-opacity:1" />
  <path
     d="M 185.02346,0.10287005 C 204.07433,70.452548 281.45015,102.89731 322.18868,165.21499 c 33.41245,51.07701 19.63818,114.03891 -3.80987,175.07197 -15.24024,39.51082 -32.53225,76.7741 -41.03218,109.21909 -8.79207,33.08616 -14.36081,66.17309 -16.70622,100.22443 -4.68855,65.21094 -15.5339,129.77843 -29.01603,194.34592 -17.5849,85.12304 -55.39299,168.00538 -47.18671,254.41608"
     stroke="currentColor"
     stroke-width="0.5"
     stroke-miterlimit="10"
     id="path42"
     style="opacity:1;fill:none;stroke:#ffffff;stroke-width:1;stroke-miterlimit:10;stroke-dasharray:none;stroke-opacity:1" />
  <path
     d="M 162.16195,0.10287005 C 181.21358,70.452548 261.22619,101.29095 303.4307,163.28691 c 34.58401,50.75681 20.80974,114.36064 -2.6383,175.39446 -15.24025,39.51081 -32.8259,77.09583 -41.32432,109.21833 -8.79359,33.40865 -14.94811,66.49557 -17.87855,100.54615 -5.86163,65.53191 -16.70546,130.0994 -30.18759,194.98862 -17.87855,85.44628 -56.27319,168.32103 -50.11866,255.05801"
     stroke="currentColor"
     stroke-width="0.5"
     stroke-miterlimit="10"
     id="path46"
     style="opacity:1;fill:none;stroke:#ffffff;stroke-width:1;stroke-miterlimit:10;stroke-dasharray:none;stroke-opacity:1" />
  <path
     d="M 139.00907,0.10287005 C 158.05919,70.452548 240.7101,100.00557 284.38059,161.36111 c 36.04998,50.75453 22.2742,114.35836 -1.46598,175.7139 -15.24024,39.51082 -33.11879,77.09583 -41.91086,109.54006 -9.08572,33.40941 -15.53389,66.81578 -19.05163,100.86712 -7.03396,65.53115 -17.87855,130.42037 -31.36068,195.30807 -17.87779,85.7718 -56.85821,168.96524 -52.75469,256.02091"
     stroke="currentColor"
     stroke-width="0.5"
     stroke-miterlimit="10"
     id="path50"
     style="opacity:1;fill:none;stroke:#ffffff;stroke-width:1;stroke-miterlimit:10;stroke-dasharray:none;stroke-opacity:1" />
  <path
     d="M 116.14833,0.10287005 C 135.49134,70.132416 220.48766,98.400735 265.91626,159.43455 c 37.51444,50.43356 23.44652,114.35912 -0.29365,175.7139 -15.24025,39.51158 -33.1188,77.41604 -42.20452,109.54082 -9.37861,33.40713 -16.12043,67.13599 -20.22244,100.86636 -8.49993,65.53191 -18.75798,130.41961 -32.533,195.95076 -17.87931,85.77332 -57.73841,169.61173 -55.39376,256.6674"
     stroke="currentColor"
     stroke-width="0.5"
     stroke-miterlimit="10"
     id="path54"
     style="opacity:1;fill:none;stroke:#ffffff;stroke-width:1;stroke-miterlimit:10;stroke-dasharray:none;stroke-opacity:1" />
  <path
     d="M 93.286826,0.10287005 C 112.63059,70.132416 200.2637,96.795141 247.15752,157.50647 c 38.68829,50.43356 24.62037,114.68084 1.17232,176.03639 -15.24024,39.51081 -33.41244,77.41604 -42.49664,109.86026 -9.67226,33.72886 -16.70622,67.13827 -21.39629,101.18885 -9.6715,65.53115 -19.92955,130.74133 -33.70381,196.27248 -17.88007,86.08898 -58.326467,169.93498 -58.326467,257.30934"
     stroke="currentColor"
     stroke-width="0.5"
     stroke-miterlimit="10"
     id="path58"
     style="opacity:1;fill:none;stroke:#ffffff;stroke-width:1;stroke-miterlimit:10;stroke-dasharray:none;stroke-opacity:1" />
  <path
     d="M 70.1341,0.10287005 C 89.476955,70.130671 179.74761,95.18727 228.1074,155.90088 c 40.15275,50.11107 26.08483,114.67856 2.34465,176.35583 -15.24024,39.8333 -33.70457,77.73777 -43.0847,109.86103 -9.96364,33.73037 -17.29201,67.45923 -22.56634,101.50981 -10.84383,65.85212 -21.10339,131.06154 -34.87766,196.91518 -17.87854,86.4107 -59.20468,170.57539 -60.962867,257.94975"
     stroke="currentColor"
     stroke-width="0.5"
     stroke-miterlimit="10"
     id="path62"
     style="opacity:1;fill:none;stroke:#ffffff;stroke-width:1;stroke-miterlimit:10;stroke-dasharray:none;stroke-opacity:1" />
  <path
     d="M 47.272217,0.10287005 C 66.616362,69.810463 159.52517,93.580918 209.64383,153.9728 c 41.61797,49.79087 27.2564,115.00029 3.51622,176.67832 -15.24024,39.83254 -33.70458,78.05949 -43.37684,110.18199 -9.96591,33.72886 -17.58565,67.7802 -23.74018,101.50905 -12.01615,65.85288 -22.2742,131.38479 -36.04998,197.23615 C 92.1145,826.30846 50.204019,910.79184 46.392403,998.49248"
     stroke="currentColor"
     stroke-width="0.5"
     stroke-miterlimit="10"
     id="path66"
     style="opacity:1;fill:none;stroke:#ffffff;stroke-width:1;stroke-miterlimit:10;stroke-dasharray:none;stroke-opacity:1" />
  <path
     d="M 24.118276,0.10287005 C 43.75463,69.810463 139.00907,91.975324 190.5922,152.04624 c 43.08394,49.79162 28.72389,115.00105 4.98371,176.99853 -15.24176,39.83254 -33.99898,78.05949 -43.67049,110.50447 -10.25956,34.04907 -18.17219,67.77944 -24.91402,101.83002 C 113.80292,607.23138 103.54487,673.08502 89.770606,739.2581 71.892514,826.31605 29.100474,910.79943 23.238462,998.81117"
     stroke="currentColor"
     stroke-width="0.5"
     stroke-miterlimit="10"
     id="path70"
     style="opacity:1;fill:none;stroke:#ffffff;stroke-width:1;stroke-miterlimit:10;stroke-dasharray:none;stroke-opacity:1" />
  <path
     d="M 1.2577059,0.10287005 C 20.894037,69.810463 118.49298,90.368971 171.83497,150.11664 244.51997,231.39035 159.23152,355.38531 134.02688,437.94137 103.25122,538.1658 90.356389,637.74829 69.546495,738.29444 51.668327,825.67108 8.2917935,910.47315 0.37786921,998.49248"
     stroke="currentColor"
     stroke-width="0.5"
     stroke-miterlimit="10"
     id="path74"
     style="opacity:1;fill:none;stroke:#ffffff;stroke-width:1;stroke-miterlimit:10;stroke-dasharray:none;stroke-opacity:1" />
</svg>
